time (ms)	position
0,	0
11,	23
21,	82
31,	167
41,	271
51,	387
61,	512
71,	644
81,	778
91,	917
101,	1056
111,	1197
121,	1341
131,	1485
141,	1630
151,	1774
161,	1918
171,	2060
181,	2205
191,	2350
201,	2495
211,	2640
221,	2783
231,	2926
241,	3070
251,	3214
261,	3357
271,	3500
281,	3646
291,	3788
301,	3933
311,	4077
321,	4222
331,	4366
341,	4509
351,	4651
361,	4795
371,	4932
381,	5074
391,	5218
401,	5362
411,	5506
421,	5649
431,	5792
441,	5931
451,	6075
461,	6219
471,	6360
481,	6504
491,	6644
501,	6786
511,	6931
521,	7075
531,	7217
541,	7360
551,	7504
561,	7649
571,	7794
581,	7938
591,	8078
601,	8219
611,	8362
621,	8504
631,	8645
641,	8789
651,	8931
661,	9074
671,	9212
681,	9352
691,	9495
701,	9634
711,	9776
721,	9920
731,	10062
741,	10206
751,	10351
761,	10491
771,	10634
781,	10775
791,	10913
801,	11057
811,	11198
821,	11342
831,	11485
841,	11630
851,	11775
861,	11920
871,	12061
881,	12205
891,	12349
901,	12493
911,	12633
921,	12772
931,	12912
941,	13056
951,	13200
961,	13342
971,	13484
981,	13627
991,	13769
1001,	13908
1011,	14047
1021,	14190
1031,	14331
1041,	14473
1051,	14616
1061,	14757
1071,	14901
1081,	15045
1091,	15188
1101,	15330
1111,	15473
1121,	15617
1131,	15761
1141,	15901
1151,	16043
1161,	16186
1171,	16326
1181,	16468
1191,	16612
1201,	16755
1211,	16893
1221,	17031
1231,	17173
1241,	17317
1251,	17459
1261,	17600
1271,	17742
1281,	17884
1291,	18027
1301,	18170
1311,	18311
1321,	18450
1331,	18593
1341,	18733
1351,	18867
1361,	18997
1371,	19117
1381,	19232
1391,	19336
1401,	19431
1411,	19515
1421,	19590
1431,	19656
1441,	19713
1451,	19762
1461,	19804
1471,	19840
1481,	19869
1491,	19893
1501,	19913
1511,	19930
1521,	19943
1531,	19953
1541,	19961
1551,	19967
1561,	19971
1571,	19973
1581,	19975
1591,	19976
1601,	19976
1611,	19976
1621,	19976
1631,	19976
1641,	19976
1651,	19976
1661,	19976
1671,	19976
1681,	19976
1691,	19976
1701,	19976
1711,	19976
1721,	19976
1731,	19976
1741,	19976
1751,	19976
1761,	19976
1771,	19976
1781,	19976
1791,	19976
1801,	19976
1811,	19976
1821,	19976
1831,	19976
1841,	19976
1851,	19976
1861,	19976
1871,	19976
1881,	19976
1891,	19976
1901,	19976
1911,	19976
1921,	19976
1931,	19976
1941,	19976
1951,	19976
1961,	19976
1971,	19976
1981,	19976
1991,	19976
2001,	19976