time (ms)	position
1,	0
11,	23
21,	81
31,	166
41,	267
51,	381
61,	506
71,	637
81,	773
91,	907
101,	1048
111,	1191
121,	1334
131,	1479
141,	1619
151,	1764
161,	1908
171,	2052
181,	2198
191,	2344
201,	2490
211,	2636
221,	2782
231,	2925
241,	3072
251,	3219
261,	3366
271,	3512
281,	3659
291,	3808
301,	3954
311,	4101
321,	4248
331,	4396
341,	4543
351,	4688
361,	4833
371,	4978
381,	5122
391,	5265
401,	5410
411,	5555
421,	5701
431,	5846
441,	5992
451,	6138
461,	6279
471,	6425
481,	6568
491,	6713
501,	6859
511,	7003
521,	7146
531,	7292
541,	7437
551,	7580
561,	7725
571,	7871
581,	8017
591,	8163
601,	8309
611,	8455
621,	8600
631,	8746
641,	8890
651,	9029
661,	9176
671,	9321
681,	9468
691,	9613
701,	9757
711,	9901
721,	10047
731,	10192
741,	10338
751,	10484
761,	10630
771,	10770
781,	10915
791,	11059
801,	11205
811,	11346
821,	11488
831,	11630
841,	11774
851,	11920
861,	12063
871,	12207
881,	12353
891,	12499
901,	12644
911,	12790
921,	12936
931,	13081
941,	13227
951,	13369
961,	13515
971,	13659
981,	13802
991,	13948
1001,	14094
1011,	14237
1021,	14383
1031,	14528
1041,	14671
1051,	14817
1061,	14961
1071,	15106
1081,	15252
1091,	15397
1101,	15540
1111,	15684
1121,	15827
1131,	15972
1141,	16118
1151,	16263
1161,	16408
1171,	16554
1181,	16697
1191,	16842
1201,	16988
1211,	17132
1221,	17275
1231,	17415
1241,	17547
1251,	17679
1261,	17807
1271,	17929
1281,	18047
1291,	18158
1301,	18264
1311,	18365
1321,	18461
1331,	18552
1341,	18637
1351,	18718
1361,	18794
1371,	18865
1381,	18932
1391,	18994
1401,	19053
1411,	19108
1421,	19160
1431,	19208
1441,	19253
1451,	19296
1461,	19335
1471,	19372
1481,	19407
1491,	19440
1501,	19471
1511,	19500
1521,	19527
1531,	19552
1541,	19576
1551,	19597
1561,	19618
1571,	19638
1581,	19656
1591,	19673
1601,	19689
1611,	19705
1621,	19719
1631,	19732
1641,	19745
1651,	19757
1661,	19768
1671,	19778
1681,	19788
1691,	19797
1701,	19805
1711,	19813
1721,	19821
1731,	19828
1741,	19834
1751,	19840
1761,	19846
1771,	19852
1781,	19856
1791,	19861
1801,	19865
1811,	19869
1821,	19873
1831,	19877
1841,	19880
1851,	19883
1861,	19886
1871,	19889
1881,	19892
1891,	19893
1901,	19896
1911,	19897
1921,	19899
1931,	19901
1941,	19903
1951,	19904
1961,	19904
1971,	19904
1981,	19904
1991,	19904
2001,	19904